Lab 03
…
Exercise 2 – chicks

An experiment was designed to compare 15-day mean comb weights (g) of two lots of male chicks, one receiving sex hormone A (testosterone), the other C (dehydroandrosterone). While we usually analyse these data by using a (pooled) two-sample t-test, a single factor analysis of variance approach could be used (with two levels of the treatment factor). We will compare the results from both analyses.

The data is found in the Comb worksheet of the chick_marigold.xlsx file. Download it below:

Read the data and save it as comb. It should look like below:

comb

# A tibble: 22 × 2
   CombWt Hormone
    <dbl> <chr>  
 1     57 A      
 2    120 A      
 3    101 A      
 4    137 A      
 5    119 A      
 6    117 A      
 7    104 A      
 8     73 A      
 9     53 A      
10     68 A      
# ℹ 12 more rows
…
Exercise 3 – lambs

Work on this exercise in your own time.

The levels of immunoglobulin (Ig) in blood serum (g/100 ml) in 3 breeds of newborn lambs have been investigated. A total of 44 lambs were sampled, with approximately equal numbers per breed. The researcher wants to know whether or not there are significant differences in immunoglobulin levels between the breeds.

The data is found in lambs.csv. Download the data if you have not done so:

Read the data into R and save it as lambs. Use the read_csv() function which should be available when you load the tidyverse package.

It should look like below:

lambs

# A tibble: 44 × 2
      Ig Breed
   <dbl> <dbl>
 1   1.1     1
 2   2.2     1
 3   1.7     1
 4   1.4     1
 5   1.6     1
 6   2.3     1
 7   1.4     1
 8   1.9     1
 9   0.8     1
10   1.6     1
# ℹ 34 more rows
…
