Lecture 03a – t-Tests
…
The data is in wide format – we need to convert it to long format for analysis.

cattle <- read.csv("data/cattle.csv") |>
  pivot_longer(
    cols = everything(),
    names_to = "breed",
    values_to = "weight"
  ) |>
  mutate(breed = as.factor(breed)) |>
  drop_na()

cattle

# A tibble: 27 × 2
   breed  weight
   <fct>   <dbl>
 1 Breed1   188.
 2 Breed2   148.
 3 Breed1   180.
 4 Breed2   146.
 5 Breed1   199.
 6 Breed2   153.
 7 Breed1   191.
 8 Breed2   135.
 9 Breed1   196.
10 Breed2   151.
# ℹ 17 more rows
…
